<?xml version="1.0" encoding="utf-8"?>
<!-- Generator: Adobe Illustrator 18.0.0, SVG Export Plug-In . SVG Version: 6.00 Build 0)  -->
<!DOCTYPE svg PUBLIC "-//W3C//DTD SVG 1.1//EN" "http://www.w3.org/Graphics/SVG/1.1/DTD/svg11.dtd">
<svg version="1.1" id="Layer_1" xmlns="http://www.w3.org/2000/svg" xmlns:xlink="http://www.w3.org/1999/xlink" x="0px" y="0px"
	 viewBox="0 0 80.9 79.2" enable-background="new 0 0 80.9 79.2" xml:space="preserve">
<g>
	<g>
		<path d="M141.5,55.5c0,9.1-7.9,13-16.5,13c-7.9,0-13.9-3-17-9.4l10.3-5.9c1,3,3.2,4.7,6.7,4.7c2.9,0,4.3-0.9,4.3-2.5
			c0-4.4-19.5-2.1-19.5-15.8c0-8.6,7.3-13,15.5-13c6.4,0,12.1,2.8,15.4,8.5l-10.1,5.5c-1.1-2.1-2.7-3.5-5.3-3.5
			c-2.1,0-3.3,0.8-3.3,2.2C122,43.8,141.5,40.8,141.5,55.5z"/>
		<path d="M142.7,47.6c0-11.8,9.3-20.9,21-20.9c11.6,0,21,9.1,21,20.9s-9.3,20.9-21,20.9C152,68.5,142.7,59.4,142.7,47.6z
			 M172.8,47.6c0-5.6-4-9.3-9.1-9.3c-5.2,0-9.1,3.7-9.1,9.3s4,9.3,9.1,9.3C168.8,56.9,172.8,53.2,172.8,47.6z"/>
		<path d="M202.6,27.7h7.4v11.4h-7.4v28.2h-11.9V39.2h-5.3V27.7h5.3c0-11.1,6.1-17.7,19.2-17v11.4C205.6,21.8,202.6,23.2,202.6,27.7
			z"/>
		<path d="M230.8,39.2v14c0,3.4,2.9,3.7,8.2,3.4v10.8c-15.5,1.6-20-3.1-20-14.2v-14h-9.7V27.7h9.7v-7.5l11.9-3.6v11.1h8.2v11.4
			H230.8z"/>
		<path d="M267.1,27v13.5c-4.9-0.8-11.9,1.2-11.9,9v17.9h-11.9V27.7h11.9v7.1C256.8,29.5,262.1,27,267.1,27z"/>
		<path d="M311.7,27.7v39.6h-11.9v-3.7c-2.6,3-6.5,4.8-11.8,4.8c-10.4,0-18.9-9.1-18.9-20.9s8.6-20.9,18.9-20.9
			c5.3,0,9.2,1.8,11.8,4.8v-3.7H311.7z M299.8,47.6c0-5.9-4-9.7-9.4-9.7c-5.5,0-9.4,3.7-9.4,9.7s4,9.7,9.4,9.7
			C295.8,57.2,299.8,53.5,299.8,47.6z"/>
		<path d="M357.2,27.7l-14.7,39.6h-13.5l-14.7-39.6h13.2l8.2,25.1l8.2-25.1H357.2z"/>
		<path d="M354.9,47.6c0-11.8,9.3-20.9,21-20.9s21,9.1,21,20.9s-9.3,20.9-21,20.9S354.9,59.4,354.9,47.6z M385,47.6
			c0-5.6-4-9.3-9.1-9.3s-9.1,3.7-9.1,9.3s4,9.3,9.1,9.3S385,53.2,385,47.6z"/>
	</g>
	<g>
		<polygon fill="#A56CAD" points="54,31.7 27,15.8 54,0 80.9,15.8 		"/>
		<polygon fill="#8D3B96" points="27,47.5 0,31.7 27,15.8 54,31.7 		"/>
		<polygon fill="#4C2C78" points="54,63.4 27,47.5 54,31.7 80.9,47.5 		"/>
		<polygon fill="#674C8A" points="27,79.2 0,63.4 27,47.5 54,63.4 		"/>
		<polygon fill="#6E7273" points="0,0 0,31.7 27,15.8 		"/>
		<polygon fill="#525556" points="80.9,47.5 54,63.4 80.9,79.2 80.9,79.2 80.9,47.5 		"/>
	</g>
</g>
</svg>
